^D:\PREGATIRE SESIUNE\SDD\SDD\DEBUG\LIST.OBJ
/OUT:"D:\PREGATIRE SESIUNE\SDD\DEBUG\SDD.EXE" /INCREMENTAL /NOLOGO kernel32.lib user32.lib gdi32.lib winspool.lib comdlg32.lib advapi32.lib shell32.lib ole32.lib oleaut32.lib uuid.lib odbc32.lib odbccp32.lib /MANIFEST /MANIFESTUAC:"level='asInvoker' uiAccess='false'" /manifest:embed /DEBUG /PDB:"D:\PREGATIRE SESIUNE\SDD\DEBUG\SDD.PDB" /SUBSYSTEM:CONSOLE /TLBID:1 /DYNAMICBASE /NXCOMPAT /IMPLIB:"D:\PREGATIRE SESIUNE\SDD\DEBUG\SDD.LIB" /MACHINE:X86 DEBUG\LIST.OBJ
^D:\PREGATIRE SESIUNE\SDD\SDD\DEBUG\ABC.OBJ|D:\PREGATIRE SESIUNE\SDD\SDD\DEBUG\COADA.OBJ|D:\PREGATIRE SESIUNE\SDD\SDD\DEBUG\FISIERE.OBJ|D:\PREGATIRE SESIUNE\SDD\SDD\DEBUG\GRAPH.OBJ|D:\PREGATIRE SESIUNE\SDD\SDD\DEBUG\HASHTABLE - CHAINING.OBJ|D:\PREGATIRE SESIUNE\SDD\SDD\DEBUG\HASHTABLE - LINEAR.OBJ|D:\PREGATIRE SESIUNE\SDD\SDD\DEBUG\HEAP.OBJ|D:\PREGATIRE SESIUNE\SDD\SDD\DEBUG\LIST - CIRCULARA.OBJ|D:\PREGATIRE SESIUNE\SDD\SDD\DEBUG\LIST.OBJ|D:\PREGATIRE SESIUNE\SDD\SDD\DEBUG\STIVA.OBJ
/OUT:"D:\PREGATIRE SESIUNE\SDD\DEBUG\SDD.EXE" /INCREMENTAL /NOLOGO kernel32.lib user32.lib gdi32.lib winspool.lib comdlg32.lib advapi32.lib shell32.lib ole32.lib oleaut32.lib uuid.lib odbc32.lib odbccp32.lib /MANIFEST /MANIFESTUAC:"level='asInvoker' uiAccess='false'" /manifest:embed /DEBUG /PDB:"D:\PREGATIRE SESIUNE\SDD\DEBUG\SDD.PDB" /SUBSYSTEM:CONSOLE /TLBID:1 /DYNAMICBASE /NXCOMPAT /IMPLIB:"D:\PREGATIRE SESIUNE\SDD\DEBUG\SDD.LIB" /MACHINE:X86 DEBUG\ABC.OBJDEBUG\COADA.OBJDEBUG\FISIERE.OBJDEBUG\GRAPH.OBJ"DEBUG\HASHTABLE - CHAINING.OBJ""DEBUG\HASHTABLE - LINEAR.OBJ"DEBUG\HEAP.OBJ"DEBUG\LIST - CIRCULARA.OBJ"DEBUG\LIST.OBJDEBUG\STIVA.OBJ
