^D:\PREGATIRE SESIUNE\SDD\SDD\DEBUG\ABC.OBJ|D:\PREGATIRE SESIUNE\SDD\SDD\DEBUG\COADA.OBJ|D:\PREGATIRE SESIUNE\SDD\SDD\DEBUG\FISIERE.OBJ|D:\PREGATIRE SESIUNE\SDD\SDD\DEBUG\GRAPH.OBJ|D:\PREGATIRE SESIUNE\SDD\SDD\DEBUG\HASHTABLE - CHAINING.OBJ|D:\PREGATIRE SESIUNE\SDD\SDD\DEBUG\HASHTABLE - LINEAR.OBJ|D:\PREGATIRE SESIUNE\SDD\SDD\DEBUG\HEAP.OBJ|D:\PREGATIRE SESIUNE\SDD\SDD\DEBUG\LIST - CIRCULARA.OBJ|D:\PREGATIRE SESIUNE\SDD\SDD\DEBUG\LIST.OBJ|D:\PREGATIRE SESIUNE\SDD\SDD\DEBUG\STIVA.OBJ
C:\WINDOWS\GLOBALIZATION\SORTING\SORTDEFAULT.NLS
C:\PROGRAM FILES (X86)\WINDOWS KITS\8.1\LIB\WINV6.3\UM\X86\KERNEL32.LIB
C:\PROGRAM FILES (X86)\WINDOWS KITS\8.1\LIB\WINV6.3\UM\X86\USER32.LIB
C:\PROGRAM FILES (X86)\WINDOWS KITS\8.1\LIB\WINV6.3\UM\X86\GDI32.LIB
C:\PROGRAM FILES (X86)\WINDOWS KITS\8.1\LIB\WINV6.3\UM\X86\WINSPOOL.LIB
C:\PROGRAM FILES (X86)\WINDOWS KITS\8.1\LIB\WINV6.3\UM\X86\COMDLG32.LIB
C:\PROGRAM FILES (X86)\WINDOWS KITS\8.1\LIB\WINV6.3\UM\X86\ADVAPI32.LIB
C:\PROGRAM FILES (X86)\WINDOWS KITS\8.1\LIB\WINV6.3\UM\X86\SHELL32.LIB
C:\PROGRAM FILES (X86)\WINDOWS KITS\8.1\LIB\WINV6.3\UM\X86\OLE32.LIB
C:\PROGRAM FILES (X86)\WINDOWS KITS\8.1\LIB\WINV6.3\UM\X86\OLEAUT32.LIB
C:\PROGRAM FILES (X86)\WINDOWS KITS\8.1\LIB\WINV6.3\UM\X86\UUID.LIB
C:\PROGRAM FILES (X86)\WINDOWS KITS\8.1\LIB\WINV6.3\UM\X86\ODBC32.LIB
C:\PROGRAM FILES (X86)\WINDOWS KITS\8.1\LIB\WINV6.3\UM\X86\ODBCCP32.LIB
D:\PREGATIRE SESIUNE\SDD\SDD\DEBUG\ABC.OBJ
D:\PREGATIRE SESIUNE\SDD\SDD\DEBUG\COADA.OBJ
D:\PREGATIRE SESIUNE\SDD\SDD\DEBUG\FISIERE.OBJ
D:\PREGATIRE SESIUNE\SDD\SDD\DEBUG\GRAPH.OBJ
D:\PREGATIRE SESIUNE\SDD\SDD\DEBUG\HASHTABLE - CHAINING.OBJ
D:\PREGATIRE SESIUNE\SDD\SDD\DEBUG\HASHTABLE - LINEAR.OBJ
D:\PREGATIRE SESIUNE\SDD\SDD\DEBUG\HEAP.OBJ
D:\PREGATIRE SESIUNE\SDD\SDD\DEBUG\LIST - CIRCULARA.OBJ
D:\PREGATIRE SESIUNE\SDD\SDD\DEBUG\LIST.OBJ
D:\PREGATIRE SESIUNE\SDD\SDD\DEBUG\STIVA.OBJ
C:\WINDOWS\SYSTEM32\TZRES.DLL
D:\INSTALLED PROGRAMS\VISUAL STUDIO\VC\LIB\MSVCPRTD.LIB
D:\INSTALLED PROGRAMS\VISUAL STUDIO\VC\LIB\MSVCRTD.LIB
D:\INSTALLED PROGRAMS\VISUAL STUDIO\VC\LIB\OLDNAMES.LIB
